{
"instructions_readme": "1) Open Chrome, 2) go to chrome://tracing, 3) click Load, 4) navigate to this file.",
"traceEvents":[
{ "cat":"", "pid":1, "tid":0, "ts":0, "ph":"M", "name":"process_name", "args": { "name":"tundra" } }
,{ "pid":1, "tid":0, "ts":511334888587, "dur":6866, "ph":"X", "name": "DriverCheckDagSignatures",  "args": { "durationMS":7, "detail":"" }}
,{ "pid":1, "tid":0, "ts":511334895454, "dur":362, "ph":"X", "name": "DriverInitData",  "args": { "durationMS":0, "detail":"" }}
,{ "pid":1, "tid":0, "ts":511334895968, "dur":1, "ph":"X", "name": "Tundra",  "args": { "durationMS":0, "detail":"RemoveStaleOutputs" }}
,{ "pid":1, "tid":0, "ts":511334895985, "dur":1, "ph":"X", "name": "Tundra",  "args": { "durationMS":0, "detail":"PrepareNodes" }}
,{ "pid":1, "tid":0, "ts":511334895985, "dur":294, "ph":"X", "name": "Tundra",  "args": { "durationMS":0, "detail":"BuildQueueInit" }}
,{ "pid":1, "tid":0, "ts":511848575474, "dur":13805, "ph":"X", "name": "JoinBuildThread",  "args": { "durationMS":14, "detail":"" }}
,{ "pid":1, "tid":0, "ts":511848589454, "dur":9, "ph":"X", "name": "JoinBuildThread",  "args": { "durationMS":0, "detail":"" }}
,{ "pid":1, "tid":0, "ts":511848589585, "dur":8, "ph":"X", "name": "JoinBuildThread",  "args": { "durationMS":0, "detail":"" }}
,{ "pid":1, "tid":0, "ts":511848589715, "dur":7, "ph":"X", "name": "JoinBuildThread",  "args": { "durationMS":0, "detail":"" }}
,{ "pid":1, "tid":0, "ts":511848589807, "dur":0, "ph":"X", "name": "SharedResourceDestroy",  "args": { "durationMS":0, "detail":"" }}
,{ "pid":1, "tid":0, "ts":511848589838, "dur":38272, "ph":"X", "name": "Tundra",  "args": { "durationMS":38, "detail":"Write AllBuiltNodes" }}
,{ "pid":1, "tid":1, "ts":511334896786, "dur":24, "ph":"X", "name": "CheckInputSignature",  "args": { "durationMS":0, "detail":"WriteResponseFile artifacts/rsp/18360340990469769550.rsp" }}
,{ "pid":1, "tid":1, "ts":511334897252, "dur":819, "ph":"X", "name": "WriteResponseFile",  "args": { "durationMS":1, "detail":"artifacts/rsp/18360340990469769550.rsp" }}
,{ "pid":1, "tid":1, "ts":511334898074, "dur":374325, "ph":"X", "name": "CheckInputSignature",  "args": { "durationMS":374, "detail":"Il2Cpp E:/test_performance/3DTest/3DTest/Library/Il2cppBuildCache/WebGL/Native/build.bc" }}
,{ "pid":1, "tid":1, "ts":511335273432, "dur":513301839, "ph":"X", "name": "Il2Cpp",  "args": { "durationMS":513302, "detail":"E:/test_performance/3DTest/3DTest/Library/Il2cppBuildCache/WebGL/Native/build.bc" }}
,{ "pid":1, "tid":1, "ts":511848575297, "dur":13, "ph":"X", "name": "CheckInputSignature",  "args": { "durationMS":0, "detail":"all_tundra_nodes" }}
,{ "pid":1, "tid":1, "ts":511848575330, "dur":167, "ph":"X", "name": "WaitingForWork", "cname":"thread_state_sleeping",  "args": { "durationMS":0, "detail":"" }}
,{ "pid":1, "tid":1, "ts":511848575497, "dur":13256, "ph":"X", "name": "Exiting",  "args": { "durationMS":13, "detail":"BuildLoop" }}
,{ "pid":1, "tid":2, "ts":511334896788, "dur":513678718, "ph":"X", "name": "WaitingForWork", "cname":"thread_state_sleeping",  "args": { "durationMS":513679, "detail":"" }}
,{ "pid":1, "tid":2, "ts":511848575529, "dur":13194, "ph":"X", "name": "Exiting",  "args": { "durationMS":13, "detail":"BuildLoop" }}
,{ "pid":1, "tid":3, "ts":511334896796, "dur":513678800, "ph":"X", "name": "WaitingForWork", "cname":"thread_state_sleeping",  "args": { "durationMS":513679, "detail":"" }}
,{ "pid":1, "tid":3, "ts":511848575627, "dur":13068, "ph":"X", "name": "Exiting",  "args": { "durationMS":13, "detail":"BuildLoop" }}
,{ "pid":1, "tid":4, "ts":511334896974, "dur":513678504, "ph":"X", "name": "WaitingForWork", "cname":"thread_state_sleeping",  "args": { "durationMS":513679, "detail":"" }}
,{ "pid":1, "tid":4, "ts":511848575497, "dur":13249, "ph":"X", "name": "Exiting",  "args": { "durationMS":13, "detail":"BuildLoop" }}

]
}
